<?xml version="1.0" encoding="UTF-8" standalone="no"?>
<!-- Generator: Adobe Illustrator 16.0.0, SVG Export Plug-In . SVG Version: 6.00 Build 0)  -->

<svg
   version="1.1"
   id="Layer_1"
   x="0px"
   y="0px"
   width="800px"
   height="75px"
   viewBox="0 0 800 75"
   enable-background="new 0 0 800 75"
   xml:space="preserve"
   sodipodi:docname="emma_Ice_installer.svg"
   inkscape:version="1.1.1 (3bf5ae0d25, 2021-09-20)"
   xmlns:inkscape="http://www.inkscape.org/namespaces/inkscape"
   xmlns:sodipodi="http://sodipodi.sourceforge.net/DTD/sodipodi-0.dtd"
   xmlns:xlink="http://www.w3.org/1999/xlink"
   xmlns="http://www.w3.org/2000/svg"
   xmlns:svg="http://www.w3.org/2000/svg"><defs
   id="defs312">
			<defs
   id="defs212">
				<rect
   id="SVGID_28_"
   x="0.653"
   width="800.307"
   height="75" />
			</defs>
			<clipPath
   id="SVGID_29_">
				<use
   xlink:href="#SVGID_28_"
   overflow="visible"
   id="use214" />
			</clipPath>
			
		</defs><sodipodi:namedview
   id="namedview310"
   pagecolor="#ffffff"
   bordercolor="#666666"
   borderopacity="1.0"
   inkscape:pageshadow="2"
   inkscape:pageopacity="0.0"
   inkscape:pagecheckerboard="0"
   showgrid="false"
   inkscape:zoom="13.77"
   inkscape:cx="627.99564"
   inkscape:cy="53.667393"
   inkscape:window-width="1680"
   inkscape:window-height="997"
   inkscape:window-x="0"
   inkscape:window-y="25"
   inkscape:window-maximized="1"
   inkscape:current-layer="Layer_1" />
<g
   id="g307"
   inkscape:export-filename="/home/emmabuntus/Travail/EmmaDE5_64/emmabuntus_de_4/Ecrans/Fond_ecran_demarrage/theme_ice-main/PNG/Emma_Installer.png"
   inkscape:export-xdpi="96"
   inkscape:export-ydpi="96">
	<g
   id="g31">
		<g
   id="g29">
			<defs
   id="defs3">
				<rect
   id="SVGID_1_"
   x="0.653"
   width="800.307"
   height="75" />
			</defs>
			<clipPath
   id="SVGID_2_">
				<use
   xlink:href="#SVGID_1_"
   overflow="visible"
   id="use5" />
			</clipPath>
			
				<linearGradient
   id="SVGID_3_"
   gradientUnits="userSpaceOnUse"
   x1="65.3794"
   y1="600.3701"
   x2="397.1807"
   y2="1039.0232"
   gradientTransform="matrix(1.1562 0.0057 -0.0052 1.0692 155.8479 -821.5713)">
				<stop
   offset="0"
   style="stop-color:#689CAE"
   id="stop8" />
				<stop
   offset="0.1409"
   style="stop-color:#48839E"
   id="stop10" />
				<stop
   offset="0.3129"
   style="stop-color:#276A8E"
   id="stop12" />
				<stop
   offset="0.4567"
   style="stop-color:#135B84"
   id="stop14" />
				<stop
   offset="0.5538"
   style="stop-color:#0C5580"
   id="stop16" />
				<stop
   offset="0.5974"
   style="stop-color:#0A4E77"
   id="stop18" />
				<stop
   offset="0.7493"
   style="stop-color:#053A5E"
   id="stop20" />
				<stop
   offset="0.8878"
   style="stop-color:#012E4F"
   id="stop22" />
				<stop
   offset="1"
   style="stop-color:#002A4A"
   id="stop24" />
			</linearGradient>
			<path
   clip-path="url(#SVGID_2_)"
   fill="url(#SVGID_3_)"
   d="M402.288,152.594c282.259,0.45,501.57-16.521,502.553-81.513     C905.823,6.087,850.906-76.32,423.432-77.001l1.113,0.002C-12.559-77.695-60.333,4.547-61.314,69.541     c-0.982,64.993,201.412,82.664,483.671,83.113L402.288,152.594z"
   id="path27" />
		</g>
	</g>
	<g
   id="g76">
		<g
   id="g74">
			<defs
   id="defs34">
				<rect
   id="SVGID_4_"
   x="0.653"
   width="800.307"
   height="75" />
			</defs>
			<clipPath
   id="SVGID_5_">
				<use
   xlink:href="#SVGID_4_"
   overflow="visible"
   id="use36" />
			</clipPath>
			
				<linearGradient
   id="SVGID_6_"
   gradientUnits="userSpaceOnUse"
   x1="406.002"
   y1="1117.9785"
   x2="416.3283"
   y2="1337.5952"
   gradientTransform="matrix(-1.1562 -0.0057 0.0047 -0.9483 890.4326 1198.744)">
				<stop
   offset="0"
   style="stop-color:#00E3E0;stop-opacity:0"
   id="stop39" />
				<stop
   offset="0.1583"
   style="stop-color:#02E3E0;stop-opacity:0"
   id="stop41" />
				<stop
   offset="0.2153"
   style="stop-color:#09E4E0;stop-opacity:0"
   id="stop43" />
				<stop
   offset="0.256"
   style="stop-color:#14E6E0;stop-opacity:0"
   id="stop45" />
				<stop
   offset="0.2888"
   style="stop-color:#25E9E0;stop-opacity:0"
   id="stop47" />
				<stop
   offset="0.317"
   style="stop-color:#3BEDE0;stop-opacity:0"
   id="stop49" />
				<stop
   offset="0.3419"
   style="stop-color:#57F1E0;stop-opacity:0"
   id="stop51" />
				<stop
   offset="0.3644"
   style="stop-color:#77F6E0;stop-opacity:0"
   id="stop53" />
				<stop
   offset="0.3845"
   style="stop-color:#9BFCE0;stop-opacity:0"
   id="stop55" />
				<stop
   offset="0.3925"
   style="stop-color:#ACFFE0;stop-opacity:0"
   id="stop57" />
				<stop
   offset="0.6748"
   style="stop-color:#AEFEDE;stop-opacity:0.4647"
   id="stop59" />
				<stop
   offset="0.7764"
   style="stop-color:#B4FBD7;stop-opacity:0.632"
   id="stop61" />
				<stop
   offset="0.8489"
   style="stop-color:#C0F6CC;stop-opacity:0.7513"
   id="stop63" />
				<stop
   offset="0.9075"
   style="stop-color:#D0EEBB;stop-opacity:0.8478"
   id="stop65" />
				<stop
   offset="0.9571"
   style="stop-color:#E6E4A5;stop-opacity:0.9295"
   id="stop67" />
				<stop
   offset="1"
   style="stop-color:#FFD88B"
   id="stop69" />
			</linearGradient>
			<path
   clip-path="url(#SVGID_5_)"
   fill="url(#SVGID_6_)"
   d="M438.732-69.18C156.473-69.629-62.81-54.617-63.681,3.023     c-0.872,57.643,54.186,130.737,481.662,131.42l-1.114-0.002c437.106,0.696,484.74-72.235,485.611-129.879     c0.87-57.643-201.554-73.352-483.813-73.801L438.732-69.18z"
   id="path72" />
		</g>
	</g>
	<g
   id="g95">
		<g
   id="g93">
			<defs
   id="defs79">
				<rect
   id="SVGID_7_"
   x="0.653"
   width="800.307"
   height="75" />
			</defs>
			<clipPath
   id="SVGID_8_">
				<use
   xlink:href="#SVGID_7_"
   overflow="visible"
   id="use81" />
			</clipPath>
			
				<radialGradient
   id="SVGID_9_"
   cx="418.4141"
   cy="-1831.6934"
   r="287.9388"
   gradientTransform="matrix(-0.8799 0.4752 -0.2991 -0.5537 627.892 -1135.22)"
   gradientUnits="userSpaceOnUse">
				<stop
   offset="0"
   style="stop-color:#FFD88B"
   id="stop84" />
				<stop
   offset="0.3109"
   style="stop-color:#ECE5A6;stop-opacity:0.7513"
   id="stop86" />
				<stop
   offset="1"
   style="stop-color:#C3FFE0;stop-opacity:0.2"
   id="stop88" />
			</radialGradient>
			<polygon
   opacity="0.2"
   clip-path="url(#SVGID_8_)"
   fill="url(#SVGID_9_)"
   enable-background="new    "
   points="953.553,120.035      655.34,-120.703 785.469,264.865 868.332,325.761    "
   id="polygon91" />
		</g>
	</g>
	<g
   id="g114">
		<g
   id="g112">
			<defs
   id="defs98">
				<rect
   id="SVGID_10_"
   x="0.653"
   width="800.307"
   height="75" />
			</defs>
			<clipPath
   id="SVGID_11_">
				<use
   xlink:href="#SVGID_10_"
   overflow="visible"
   id="use100" />
			</clipPath>
			
				<radialGradient
   id="SVGID_12_"
   cx="416.2598"
   cy="-1620.9023"
   r="331.4811"
   gradientTransform="matrix(-0.8799 0.4752 -0.2991 -0.5537 627.892 -1135.22)"
   gradientUnits="userSpaceOnUse">
				<stop
   offset="0"
   style="stop-color:#FFD88B"
   id="stop103" />
				<stop
   offset="0.3109"
   style="stop-color:#ECE5A6;stop-opacity:0.7513"
   id="stop105" />
				<stop
   offset="1"
   style="stop-color:#C3FFE0;stop-opacity:0.2"
   id="stop107" />
			</radialGradient>
			<polygon
   opacity="0.2"
   clip-path="url(#SVGID_11_)"
   fill="url(#SVGID_12_)"
   enable-background="new    "
   points="     707.285,-344.639 736.443,-282.342 894.634,10.564 785.588,264.801    "
   id="polygon110" />
		</g>
	</g>
	<g
   id="g133">
		<g
   id="g131">
			<defs
   id="defs117">
				<rect
   id="SVGID_13_"
   x="0.653"
   width="800.307"
   height="75" />
			</defs>
			<clipPath
   id="SVGID_14_">
				<use
   xlink:href="#SVGID_13_"
   overflow="visible"
   id="use119" />
			</clipPath>
			
				<radialGradient
   id="SVGID_15_"
   cx="394.2778"
   cy="-1690.124"
   r="382.7981"
   gradientTransform="matrix(-0.8799 0.4752 -0.2991 -0.5537 627.892 -1135.22)"
   gradientUnits="userSpaceOnUse">
				<stop
   offset="0"
   style="stop-color:#FFD88B"
   id="stop122" />
				<stop
   offset="0.3109"
   style="stop-color:#ECE5A6;stop-opacity:0.7513"
   id="stop124" />
				<stop
   offset="1"
   style="stop-color:#C3FFE0;stop-opacity:0.2"
   id="stop126" />
			</radialGradient>
			<polygon
   opacity="0.2"
   clip-path="url(#SVGID_14_)"
   fill="url(#SVGID_15_)"
   enable-background="new    "
   points="     704.515,-349.77 744.247,-267.893 953.711,119.949 868.451,325.695    "
   id="polygon129" />
		</g>
	</g>
	<g
   id="g152">
		<g
   id="g150">
			<defs
   id="defs136">
				<rect
   id="SVGID_16_"
   x="0.653"
   width="800.307"
   height="75" />
			</defs>
			<clipPath
   id="SVGID_17_">
				<use
   xlink:href="#SVGID_16_"
   overflow="visible"
   id="use138" />
			</clipPath>
			
				<radialGradient
   id="SVGID_18_"
   cx="1221.3223"
   cy="-1005.3467"
   r="301.6613"
   gradientTransform="matrix(-0.1239 0.9923 -0.6245 -0.078 235.1364 -1317.3605)"
   gradientUnits="userSpaceOnUse">
				<stop
   offset="0"
   style="stop-color:#FFD88B"
   id="stop141" />
				<stop
   offset="0.3109"
   style="stop-color:#ECE5A6;stop-opacity:0.7513"
   id="stop143" />
				<stop
   offset="1"
   style="stop-color:#C3FFE0;stop-opacity:0.2"
   id="stop145" />
			</radialGradient>
			<polygon
   opacity="0.2"
   clip-path="url(#SVGID_17_)"
   fill="url(#SVGID_18_)"
   enable-background="new    "
   points="812.072,93.396      953.711,119.949 768.855,-75.538 469.596,-174    "
   id="polygon148" />
		</g>
	</g>
	<g
   id="g171">
		<g
   id="g169">
			<defs
   id="defs155">
				<rect
   id="SVGID_19_"
   x="0.653"
   width="800.307"
   height="75" />
			</defs>
			<clipPath
   id="SVGID_20_">
				<use
   xlink:href="#SVGID_19_"
   overflow="visible"
   id="use157" />
			</clipPath>
			
				<radialGradient
   id="SVGID_21_"
   cx="517.7686"
   cy="-749.4722"
   r="145.3198"
   gradientTransform="matrix(-0.8473 -0.5312 0.3343 -0.5332 760.6775 -113.4604)"
   gradientUnits="userSpaceOnUse">
				<stop
   offset="0"
   style="stop-color:#FFD88B"
   id="stop160" />
				<stop
   offset="0.3109"
   style="stop-color:#ECE5A6;stop-opacity:0.7513"
   id="stop162" />
				<stop
   offset="1"
   style="stop-color:#C3FFE0;stop-opacity:0.2"
   id="stop164" />
			</radialGradient>
			<polygon
   opacity="0.5"
   clip-path="url(#SVGID_20_)"
   fill="url(#SVGID_21_)"
   enable-background="new    "
   points="     163.587,-82.279 50.716,93.904 -20.739,104.521 27.807,27.168    "
   id="polygon167" />
		</g>
	</g>
	<g
   id="g190">
		<g
   id="g188">
			<defs
   id="defs174">
				<rect
   id="SVGID_22_"
   x="0.653"
   width="800.307"
   height="75" />
			</defs>
			<clipPath
   id="SVGID_23_">
				<use
   xlink:href="#SVGID_22_"
   overflow="visible"
   id="use176" />
			</clipPath>
			
				<radialGradient
   id="SVGID_24_"
   cx="-1164.7837"
   cy="400.127"
   r="107.56"
   gradientTransform="matrix(0.9666 -0.2565 0.1614 0.6083 1113.5325 -501.2651)"
   gradientUnits="userSpaceOnUse">
				<stop
   offset="0"
   style="stop-color:#FFD88B"
   id="stop179" />
				<stop
   offset="0.3109"
   style="stop-color:#ECE5A6;stop-opacity:0.7513"
   id="stop181" />
				<stop
   offset="1"
   style="stop-color:#C3FFE0;stop-opacity:0.2"
   id="stop183" />
			</radialGradient>
			<polygon
   opacity="0.5"
   clip-path="url(#SVGID_23_)"
   fill="url(#SVGID_24_)"
   enable-background="new    "
   points="-0.725,101.507      117.999,-57.027 -40.888,35.72 2.146,134.666    "
   id="polygon186" />
		</g>
	</g>
	<g
   id="g209">
		<g
   id="g207">
			<defs
   id="defs193">
				<rect
   id="SVGID_25_"
   x="0.653"
   width="800.307"
   height="75" />
			</defs>
			<clipPath
   id="SVGID_26_">
				<use
   xlink:href="#SVGID_25_"
   overflow="visible"
   id="use195" />
			</clipPath>
			
				<radialGradient
   id="SVGID_27_"
   cx="-1197.2725"
   cy="277.8867"
   r="98.3843"
   gradientTransform="matrix(0.9666 -0.2565 0.1614 0.6083 1113.5325 -501.2651)"
   gradientUnits="userSpaceOnUse">
				<stop
   offset="0"
   style="stop-color:#FFD88B"
   id="stop198" />
				<stop
   offset="0.3109"
   style="stop-color:#ECE5A6;stop-opacity:0.7513"
   id="stop200" />
				<stop
   offset="1"
   style="stop-color:#C3FFE0;stop-opacity:0.2"
   id="stop202" />
			</radialGradient>
			<polygon
   opacity="0.5"
   clip-path="url(#SVGID_26_)"
   fill="url(#SVGID_27_)"
   enable-background="new    "
   points="-9.629,60.357      -41.299,37.467 -21.893,-101.66 50.733,-60.457    "
   id="polygon205" />
		</g>
	</g>
	<g
   id="g305">
		<g
   clip-path="url(#SVGID_29_)"
   id="g301">
				<g
   id="g237">
					<path
   fill="#ffffff"
   d="M 234.245,22.212 H 252.6 v 5.571 h -11.441 v 4.377 h 10.496 v 5.572 h -10.496 v 4.375 h 11.392 v 5.571 h -18.306 z"
   id="path217" />
					<path
   fill="#ffffff"
   d="m 256.119,28.58 h 6.517 v 3.631 h 0.198 c 0.796,-2.388 2.823,-3.88 5.473,-3.88 2.686,0 4.824,1.542 5.223,3.88 h 0.199 c 0.646,-2.338 2.935,-3.88 5.77,-3.88 3.656,0 6.169,2.55 6.169,6.467 v 12.884 h -6.865 V 36.539 c 0,-1.666 -0.92,-2.688 -2.338,-2.688 -1.417,0 -2.288,1.021 -2.288,2.688 v 11.143 h -6.566 V 36.539 c 0,-1.666 -0.92,-2.688 -2.338,-2.688 -1.417,0 -2.288,1.021 -2.288,2.688 v 11.143 h -6.864 V 28.58 Z"
   id="path219" />
					<path
   fill="#ffffff"
   d="m 289.03,28.58 h 6.517 v 3.631 h 0.198 c 0.796,-2.388 2.823,-3.88 5.472,-3.88 2.687,0 4.825,1.542 5.224,3.88 h 0.199 c 0.646,-2.338 2.935,-3.88 5.77,-3.88 3.656,0 6.169,2.55 6.169,6.467 v 12.884 h -6.865 V 36.539 c 0,-1.666 -0.92,-2.688 -2.338,-2.688 -1.417,0 -2.288,1.021 -2.288,2.688 v 11.143 h -6.566 V 36.539 c 0,-1.666 -0.92,-2.688 -2.338,-2.688 -1.417,0 -2.288,1.021 -2.288,2.688 v 11.143 h -6.864 V 28.58 Z"
   id="path221" />
					<path
   fill="#ffffff"
   d="m 321.046,42.408 c 0,-4.191 3.071,-5.783 7.014,-6.069 3.209,-0.234 4.428,-0.584 4.428,-1.689 v -0.052 c 0,-0.993 -0.846,-1.541 -2.04,-1.541 -1.306,0 -2.176,0.561 -2.338,1.74 h -6.317 c 0.236,-3.479 3.047,-6.467 8.755,-6.467 5.459,0 8.805,2.736 8.805,6.268 v 13.084 h -6.417 v -2.688 h -0.149 c -1.156,2.141 -3.034,2.985 -5.521,2.985 -3.658,10e-4 -6.22,-1.766 -6.22,-5.571 z m 11.491,-1.492 v -1.592 c -0.722,0.299 -1.642,0.521 -2.736,0.696 -1.592,0.248 -2.288,1.007 -2.288,1.987 0,1.07 0.82,1.645 1.989,1.645 1.555,0 3.035,-0.996 3.035,-2.736 z"
   id="path223" />
					<path
   fill="#ffffff"
   d="m 342.523,22.212 h 6.864 v 9.7 h 0.1 c 0.746,-1.939 2.537,-3.582 5.372,-3.582 3.781,0 7.462,2.886 7.462,9.8 0,6.615 -3.433,9.8 -7.512,9.8 -2.686,0 -4.526,-1.442 -5.322,-3.384 h -0.149 v 3.136 h -6.814 z m 9.75,20.444 c 1.89,0 2.984,-1.691 2.984,-4.525 0,-2.835 -1.095,-4.526 -2.984,-4.526 -1.891,0 -3.034,1.69 -3.034,4.526 -10e-4,2.785 1.143,4.525 3.034,4.525 z"
   id="path225" />
					<path
   fill="#ffffff"
   d="m 377.577,28.58 h 6.865 v 19.102 h -6.517 v -3.631 h -0.199 c -0.833,2.437 -3.021,3.879 -5.87,3.879 -4.017,0 -6.652,-2.982 -6.665,-7.162 V 28.58 h 6.864 v 10.745 c 0.013,1.891 1.008,3.034 2.736,3.034 1.703,0 2.798,-1.146 2.785,-3.034 z"
   id="path227" />
					<path
   fill="#ffffff"
   d="m 394.776,47.682 h -6.864 V 28.58 h 6.518 v 3.631 h 0.197 c 0.834,-2.412 3.061,-3.88 5.87,-3.88 4.053,0 6.678,3.01 6.667,7.163 v 12.188 h -6.866 V 36.936 c 0.014,-1.89 -1.007,-3.032 -2.734,-3.032 -1.704,0 -2.773,1.145 -2.786,3.032 z"
   id="path229" />
					<path
   fill="#ffffff"
   d="m 421.924,33.555 h -3.283 v 7.982 c 0,0.797 0.397,1.195 1.293,1.195 0.41,0 1.082,-0.138 1.345,-0.199 l 0.994,4.824 c -0.621,0.188 -1.777,0.51 -3.332,0.598 -4.738,0.262 -7.213,-1.766 -7.164,-5.771 v -8.629 h -2.438 V 28.58 h 2.438 v -4.576 h 6.865 v 4.576 h 3.281 v 4.975 z"
   id="path231" />
					<path
   fill="#ffffff"
   d="m 437.088,28.58 h 6.864 v 19.102 h -6.519 v -3.631 h -0.198 c -0.832,2.437 -3.021,3.879 -5.869,3.879 -4.019,0 -6.651,-2.982 -6.666,-7.162 V 28.58 h 6.865 v 10.745 c 0.012,1.891 1.008,3.034 2.735,3.034 1.703,0 2.797,-1.146 2.785,-3.034 z m -9.703,-5.124 c 0,-1.592 1.345,-2.886 3.035,-2.886 1.644,0 2.983,1.294 2.983,2.886 0,1.592 -1.342,2.886 -2.983,2.886 -1.691,-10e-4 -3.035,-1.295 -3.035,-2.886 z m 7.912,0 c 0,-1.592 1.344,-2.886 3.035,-2.886 1.641,0 2.983,1.294 2.983,2.886 0,1.592 -1.345,2.886 -2.983,2.886 -1.693,-10e-4 -3.035,-1.295 -3.035,-2.886 z"
   id="path233" />
					<path
   fill="#ffffff"
   d="m 458.563,34.797 c -0.101,-1.169 -1.231,-1.89 -2.589,-1.89 -1.182,0 -2.163,0.445 -2.139,1.243 -0.024,0.56 0.387,1.082 1.84,1.343 l 3.881,0.696 c 3.904,0.709 5.796,2.351 5.82,5.172 -0.024,4.093 -3.918,6.666 -9.203,6.666 -5.845,0 -9.228,-2.601 -9.601,-6.517 h 6.813 c 0.187,1.219 1.281,1.89 2.836,1.89 1.257,0 2.164,-0.446 2.188,-1.241 -0.022,-0.725 -0.694,-1.119 -2.188,-1.395 l -3.383,-0.598 c -3.894,-0.684 -5.847,-2.611 -5.819,-5.621 -0.025,-3.979 3.346,-6.219 8.805,-6.219 5.521,0 8.879,2.426 9.054,6.467 h -6.315 z"
   id="path235" />
				</g>
				<g
   id="g267">
					<path
   fill="#ffffff"
   d="m 523.317,35.85 c 0.021,-1.141 0.021,-1.979 -0.021,-3.319 -0.041,-1.301 -0.221,-1.54 -0.562,-1.92 0.62,0.039 1.479,0.039 2.121,0.039 0.479,0 0.96,-0.021 1.44,-0.021 0.479,0 0.938,-0.021 1.42,-0.021 1.061,0 2.238,0.118 3.16,0.659 1.739,1.021 2.42,3.183 2.42,6.021 0,5.041 -1.881,7.462 -6.36,7.462 -0.521,0 -1.12,-0.021 -1.761,-0.021 -0.84,0 -1.881,0 -2.5,0.021 0.619,-0.74 0.619,-0.92 0.64,-4.301 z m 2.202,2.98 c 0,0.84 0,3.221 0.06,3.621 0.063,0.561 0.28,0.778 1.28,0.778 2.78,0 4.142,-1.399 4.142,-5.521 0,-3.562 -0.721,-5.603 -3.922,-5.603 -0.5,0 -1.04,0.041 -1.5,0.079 -0.04,0.98 -0.06,1.24 -0.06,3.882 z"
   id="path239" />
					<path
   fill="#ffffff"
   d="m 542.139,39.59 h -5.32 c 0,0.98 0.04,3.822 3.16,3.822 1.199,0 1.738,-0.342 2.16,-0.603 -0.119,0.621 -0.221,1.08 -0.199,1.802 -0.36,0.1 -1.021,0.301 -2.381,0.301 -3.063,0 -4.883,-1.603 -4.883,-5.662 0,-0.959 0,-5.48 4.082,-5.48 2.959,0 3.422,2.302 3.422,4.642 z m -1.94,-1.379 c 0.04,-1.421 -0.08,-3.141 -1.641,-3.141 -1.42,0 -1.762,1.479 -1.78,3.141 z"
   id="path241" />
					<path
   fill="#ffffff"
   d="m 543.778,36.53 c 0,-4.303 0,-5.621 -0.78,-5.941 0.86,-0.08 1.66,-0.18 2.961,-0.78 -0.158,1.82 -0.181,5.382 -0.181,6.401 0.3,-0.819 0.86,-2.42 2.78,-2.42 0.961,0 1.859,0.479 2.421,1.42 0.58,1 0.659,2.58 0.659,3.3 0,1.181 -0.199,2.74 -0.779,3.9 -1.221,2.502 -3.48,2.502 -4.262,2.502 -1.221,0 -2.239,-0.18 -3.062,-0.5 0.24,-0.642 0.24,-1.48 0.24,-2.961 z m 3.921,-0.921 c -0.181,0 -1.12,0.021 -1.541,1.439 -0.14,0.439 -0.318,1.341 -0.318,3.063 0,1.438 0,2.68 0.039,3.398 0.262,0.061 0.66,0.119 0.979,0.119 2.319,0 2.661,-2.5 2.661,-4.36 10e-4,-1.558 -0.3,-3.659 -1.82,-3.659 z"
   id="path243" />
					<path
   fill="#ffffff"
   d="m 556.039,44.791 c -0.398,-0.059 -0.681,-0.1 -1.261,-0.1 -0.64,0 -1.08,0.041 -1.54,0.1 0.2,-0.379 0.28,-0.562 0.34,-1.859 0.08,-1.78 0.102,-6.541 -0.04,-7.541 -0.1,-0.761 -0.278,-0.881 -0.561,-1.08 1.641,-0.159 2.101,-0.279 2.86,-0.641 -0.16,0.88 -0.182,1.32 -0.182,2.66 -0.037,6.9 -0.057,7.641 0.384,8.461 z m -1.461,-11.922 c -0.72,0 -1.119,-0.521 -1.119,-1.28 0,-0.56 0.18,-1.359 1.142,-1.359 0.899,0 1.079,0.682 1.079,1.279 0.018,0.72 -0.221,1.36 -1.102,1.36 z"
   id="path245" />
					<path
   fill="#ffffff"
   d="m 561.719,37.93 c 0.539,0 0.858,0.04 1.238,0.062 0,-1.563 0,-2.66 -1.66,-2.66 -1.039,0 -2.061,0.359 -2.841,1.04 -0.18,-0.86 -0.38,-1.24 -0.62,-1.681 0.58,-0.302 1.74,-0.899 3.723,-0.899 3.001,0 3.4,1.5 3.4,3.021 l -0.021,4.082 c 0,1.062 0,1.819 0.04,2.58 0.061,0.78 0.181,0.979 0.399,1.319 -0.341,-0.021 -0.66,-0.06 -1,-0.06 -0.602,0 -0.961,0.039 -1.32,0.06 -0.062,-0.699 -0.079,-1.24 -0.062,-2.119 -0.38,0.84 -1,2.199 -2.841,2.199 -0.159,0 -0.66,0 -1.16,-0.22 -1.119,-0.541 -1.5,-1.802 -1.5,-3.063 0.004,-2.681 1.684,-3.661 4.225,-3.661 z m 0.22,1.201 c -0.762,0 -2.441,0.14 -2.441,2.021 0,0.979 0.262,1.979 1.461,1.979 0.521,0 1.221,-0.26 1.643,-1.16 0.34,-0.698 0.357,-1.58 0.398,-2.84 z"
   id="path247" />
					<path
   fill="#ffffff"
   d="m 574.52,42.811 c 0.021,0.682 0.021,1.4 0.301,1.98 -0.439,-0.039 -0.7,-0.1 -1.521,-0.1 -0.479,0 -0.739,0.041 -1.119,0.1 0.078,-0.26 0.119,-0.359 0.158,-0.699 0.062,-0.461 0.102,-2 0.102,-2.541 v -2.16 c 0,-0.939 0,-2.301 -0.061,-2.78 -0.041,-0.34 -0.142,-1.261 -1.302,-1.261 -1.141,0 -1.521,0.841 -1.659,1.521 -0.16,0.7 -0.16,1.46 -0.16,4.421 0.021,2.561 0.021,2.801 0.221,3.5 -0.34,-0.039 -0.76,-0.08 -1.36,-0.08 -0.479,0 -0.8,0.021 -1.2,0.08 0.143,-0.32 0.223,-0.48 0.262,-1.6 0.041,-1.102 0.121,-6.502 -0.062,-7.782 -0.1,-0.78 -0.3,-0.96 -0.521,-1.16 1.621,-0.08 2.141,-0.341 2.642,-0.601 v 2.12 c 0.239,-0.62 0.739,-2.002 2.74,-2.002 2.5,0 2.521,1.82 2.54,3.021 v 6.023 z"
   id="path249" />
					<path
   fill="#ffffff"
   d="m 588.758,43.932 -0.102,0.82 h -6.74 l 0.063,-3.881 -0.063,-8.9 h 6.723 l 0.08,0.12 -0.121,0.82 -2.979,-0.04 -2.64,0.02 -0.04,4.82 2.5,0.021 2.14,-0.021 0.08,0.1 -0.1,0.82 -4.62,-0.02 -0.021,2.198 0.039,3.041 2.58,0.021 3.143,-0.062 z"
   id="path251" />
					<path
   fill="#ffffff"
   d="m 596.898,40.791 0.04,2.221 c 0,0.347 0.046,0.59 0.14,0.73 0.094,0.139 0.26,0.209 0.5,0.209 0.229,0 0.475,-0.066 0.74,-0.199 l 0.141,0.1 -0.121,0.66 c -0.317,0.199 -0.658,0.308 -1.02,0.32 -0.76,-0.027 -1.174,-0.5 -1.24,-1.42 h -0.1 c -0.414,0.412 -0.813,0.731 -1.2,0.959 -0.388,0.227 -0.819,0.387 -1.3,0.479 -1.2,0 -2.135,-0.399 -2.801,-1.198 -0.666,-0.802 -1,-1.92 -1,-3.361 0,-1.52 0.381,-2.696 1.141,-3.53 0.76,-0.833 1.826,-1.25 3.2,-1.25 0.573,0 1.22,0.087 1.938,0.262 v -4.961 l 1.021,-0.101 z m -5.379,-3.499 c -0.574,0.667 -0.86,1.621 -0.86,2.86 0,1.198 0.247,2.134 0.74,2.8 0.492,0.668 1.173,1 2.04,1 0.467,0 0.905,-0.117 1.317,-0.352 0.414,-0.231 0.82,-0.604 1.223,-1.107 l 0.02,-1.621 -0.039,-4.141 c -0.707,-0.293 -1.388,-0.438 -2.041,-0.438 -1.028,-10e-4 -1.827,0.332 -2.4,0.999 z"
   id="path253" />
					<path
   fill="#ffffff"
   d="m 601.768,31.971 c 0.111,0.12 0.171,0.28 0.171,0.48 0,0.213 -0.062,0.383 -0.183,0.51 -0.119,0.127 -0.285,0.189 -0.5,0.189 -0.213,0 -0.377,-0.058 -0.488,-0.17 -0.113,-0.112 -0.17,-0.276 -0.17,-0.489 0,-0.214 0.061,-0.384 0.181,-0.511 0.12,-0.128 0.286,-0.189 0.5,-0.189 0.212,0.001 0.375,0.061 0.489,0.18 z m -0.969,8.881 -0.021,-5.118 1,-0.121 -0.021,5.18 0.021,3.961 h -1.021 z"
   id="path255" />
					<path
   fill="#ffffff"
   d="m 609.379,43.492 0.119,0.1 -0.1,0.719 c -0.667,0.35 -1.27,0.527 -1.801,0.541 -0.693,-0.079 -1.207,-0.32 -1.539,-0.729 -0.334,-0.406 -0.5,-0.99 -0.5,-1.75 l 0.039,-1.799 -0.021,-4.161 h -1.239 l -0.08,-0.103 0.08,-0.64 h 1.239 v -1.819 l 0.88,-0.358 0.12,0.1 -0.021,2.08 h 2.898 l 0.08,0.1 -0.08,0.643 h -2.898 l -0.062,5.86 c 0,0.573 0.113,0.995 0.341,1.27 0.228,0.273 0.572,0.41 1.039,0.41 0.471,-0.003 0.971,-0.157 1.506,-0.464 z"
   id="path257" />
					<path
   fill="#ffffff"
   d="m 612.607,31.971 c 0.113,0.12 0.171,0.28 0.171,0.48 0,0.213 -0.062,0.383 -0.181,0.51 -0.12,0.127 -0.287,0.189 -0.5,0.189 -0.215,0 -0.377,-0.058 -0.49,-0.17 -0.113,-0.112 -0.17,-0.276 -0.17,-0.489 0,-0.214 0.061,-0.384 0.181,-0.511 0.12,-0.128 0.286,-0.189 0.5,-0.189 0.213,0.001 0.376,0.061 0.489,0.18 z m -0.97,8.881 -0.021,-5.118 1,-0.121 -0.021,5.18 0.021,3.961 h -1.021 z"
   id="path259" />
					<path
   fill="#ffffff"
   d="m 622.228,36.721 c 0.674,0.81 1.011,1.933 1.011,3.371 0,1.506 -0.354,2.681 -1.061,3.521 -0.707,0.841 -1.688,1.261 -2.939,1.261 -1.2,0 -2.134,-0.402 -2.8,-1.209 -0.667,-0.808 -1,-1.924 -1,-3.354 0,-1.506 0.35,-2.682 1.05,-3.527 0.7,-0.847 1.678,-1.271 2.93,-1.271 1.199,-0.002 2.136,0.402 2.809,1.208 z m -5.03,0.571 c -0.521,0.667 -0.78,1.606 -0.78,2.819 0,1.278 0.25,2.265 0.75,2.948 0.5,0.688 1.203,1.031 2.11,1.031 0.946,0 1.681,-0.33 2.199,-0.99 0.521,-0.659 0.778,-1.596 0.778,-2.811 0,-1.279 -0.252,-2.266 -0.76,-2.959 -0.507,-0.693 -1.214,-1.04 -2.119,-1.04 -0.932,0.002 -1.659,0.335 -2.178,1.002 z"
   id="path261" />
					<path
   fill="#ffffff"
   d="m 631.559,38.451 c 0.013,-0.642 -0.146,-1.137 -0.471,-1.49 -0.326,-0.354 -0.789,-0.529 -1.392,-0.529 -0.479,0 -0.974,0.145 -1.479,0.431 -0.508,0.287 -0.994,0.696 -1.459,1.229 l -0.021,2.699 0.061,3.961 h -1.039 l 0.061,-3.9 -0.04,-5.118 0.979,-0.121 v 1.461 h 0.101 c 0.453,-0.44 0.923,-0.793 1.41,-1.063 0.485,-0.267 0.956,-0.427 1.409,-0.479 0.92,0 1.627,0.234 2.119,0.71 0.494,0.474 0.732,1.144 0.722,2.01 l -0.021,2.559 0.04,3.941 h -1.04 z"
   id="path263" />
					
				</g>
				<g
   id="g297">
					<g
   id="whhite">
						<path
   fill="#ffffff"
   d="m 197.828,9.922 c 4.035,0 7.307,3.271 7.307,7.307 0,1.893 -0.727,3.609 -1.906,4.906 1.541,1.822 2.795,3.851 3.736,6.051 1.268,2.97 1.91,6.121 1.91,9.367 0,3.248 -0.643,6.4 -1.91,9.369 -0.84,1.967 -1.934,3.791 -3.256,5.458 1.465,1.337 2.391,3.254 2.391,5.395 0,4.034 -3.271,7.306 -7.307,7.306 -3.086,0 -5.721,-1.918 -6.789,-4.624 -2.369,0.75 -4.834,1.133 -7.357,1.133 -3.266,0 -6.434,-0.635 -9.42,-1.886 -2.885,-1.208 -5.475,-2.938 -7.697,-5.14 -2.229,-2.207 -3.979,-4.776 -5.201,-7.642 -0.275,-0.645 -0.516,-1.3 -0.732,-1.961 -0.414,0.073 -0.84,0.119 -1.275,0.119 -4.035,0 -7.307,-3.271 -7.307,-7.307 0,-4.036 3.271,-7.307 7.307,-7.307 0.389,0 0.768,0.039 1.141,0.1 0.246,-0.806 0.533,-1.599 0.865,-2.377 1.223,-2.86 2.969,-5.433 5.193,-7.638 2.223,-2.202 4.811,-3.933 7.691,-5.143 2.984,-1.252 6.15,-1.89 9.412,-1.892 h 0.023 c 2.203,0 4.361,0.295 6.449,0.867 1.107,-2.619 3.704,-4.461 6.732,-4.461 m -13.182,43.805 c 9.025,0 16.369,-7.254 16.369,-16.174 0,-8.917 -7.344,-16.172 -16.369,-16.172 h -0.02 c -9.014,0.008 -16.348,7.264 -16.348,16.172 0.001,8.918 7.343,16.174 16.368,16.174 M 197.828,7.922 c -3.165,0 -6.056,1.59 -7.757,4.162 -1.783,-0.374 -3.601,-0.563 -5.424,-0.563 -3.554,0.002 -6.98,0.689 -10.209,2.045 -3.121,1.312 -5.922,3.184 -8.326,5.565 -2.406,2.385 -4.298,5.167 -5.625,8.271 -0.149,0.35 -0.291,0.705 -0.426,1.065 -5.012,0.14 -9.047,4.258 -9.047,9.302 0,5.103 4.127,9.258 9.218,9.308 0.084,0.213 0.17,0.422 0.257,0.628 1.325,3.102 3.22,5.886 5.633,8.273 2.406,2.385 5.209,4.256 8.332,5.563 3.233,1.354 6.662,2.041 10.192,2.041 2.144,0 4.267,-0.258 6.331,-0.769 1.688,2.635 4.595,4.26 7.815,4.26 5.132,0 9.307,-4.176 9.307,-9.308 0,-1.986 -0.648,-3.92 -1.816,-5.507 0.995,-1.436 1.84,-2.963 2.521,-4.559 1.374,-3.218 2.071,-6.636 2.071,-10.154 0,-3.518 -0.697,-6.937 -2.071,-10.153 -0.806,-1.884 -1.83,-3.661 -3.053,-5.303 0.9,-1.458 1.383,-3.138 1.383,-4.868 0,-5.125 -4.174,-9.299 -9.306,-9.299 z m -13.182,43.805 c -7.922,0 -14.367,-6.356 -14.367,-14.174 0,-7.808 6.437,-14.164 14.35,-14.172 7.941,0 14.387,6.357 14.387,14.172 -0.001,7.815 -6.446,14.174 -14.37,14.174 z"
   id="path269" />
					</g>
					<circle
   id="white_x5F_path"
   fill="#ffffff"
   cx="184.315"
   cy="37.695"
   r="17.698" />
					<g
   id="path1134-3-6-3-7-3_7_">
						<circle
   fill="#0c5580"
   cx="160.32001"
   cy="37.773998"
   r="7.3060002"
   id="circle273" />
					</g>
					<g
   id="path1134-3-6-3-7-5_7_">
						<circle
   fill="#0c5580"
   cx="197.828"
   cy="17.228001"
   r="7.3060002"
   id="circle276" />
					</g>
					<g
   id="path1134-3-6-3-7_7_">
						<circle
   fill="#0c5580"
   cx="198.793"
   cy="57.772999"
   r="7.3049998"
   id="circle279" />
					</g>
					<g
   id="path1132_7_">
						<path
   fill="#0c5580"
   d="m 184.646,61.587 v 0 c -3.266,0 -6.434,-0.635 -9.42,-1.886 -2.885,-1.208 -5.475,-2.938 -7.697,-5.142 -2.229,-2.204 -3.979,-4.774 -5.201,-7.64 -1.268,-2.969 -1.91,-6.121 -1.91,-9.369 0,-3.245 0.641,-6.396 1.908,-9.361 1.223,-2.86 2.969,-5.433 5.193,-7.638 2.223,-2.202 4.811,-3.933 7.691,-5.143 2.984,-1.252 6.15,-1.89 9.412,-1.892 h 0.023 c 3.264,0 6.434,0.633 9.42,1.885 2.883,1.207 5.475,2.938 7.699,5.142 2.227,2.205 3.977,4.775 5.199,7.641 1.268,2.968 1.91,6.119 1.91,9.366 0,3.248 -0.643,6.4 -1.91,9.369 -1.223,2.863 -2.973,5.436 -5.199,7.64 -2.225,2.203 -4.816,3.934 -7.699,5.142 -2.985,1.251 -6.155,1.886 -9.419,1.886 z m -0.019,-40.206 c -9.014,0.008 -16.348,7.265 -16.348,16.172 0,8.918 7.342,16.174 16.367,16.174 9.025,0 16.369,-7.254 16.369,-16.174 0,-8.917 -7.344,-16.172 -16.369,-16.172 z"
   id="path282" />
					</g>
					<g
   id="path1134_7_">
						<circle
   fill="#ffd700"
   cx="197.828"
   cy="17.228001"
   r="5.1919999"
   id="circle285" />
					</g>
					<g
   id="path1134-3_7_">
						<circle
   fill="#ffd700"
   cx="198.793"
   cy="57.772999"
   r="5.1929998"
   id="circle288" />
					</g>
					<g
   id="path1134-3-6_7_">
						<circle
   fill="#ffd700"
   cx="160.32001"
   cy="37.773998"
   r="5.1929998"
   id="circle291" />
					</g>
					<g
   id="path1897_7_">
						<path
   fill="#ffd700"
   d="m 183.9,50.282 c -2.793,-0.13 -5.447,-1.164 -7.602,-2.962 -1.664,-1.392 -2.967,-3.218 -3.727,-5.228 -0.172,-0.457 -0.354,-1.035 -0.453,-1.446 -0.021,-0.094 -0.043,-0.178 -0.047,-0.186 -0.004,-0.013 0.607,-0.017 3.029,-0.017 h 3.035 l 0.09,0.186 c 0.248,0.502 0.596,1.026 0.965,1.456 0.176,0.207 0.535,0.563 0.742,0.74 0.699,0.595 1.486,1.037 2.355,1.325 1.666,0.552 3.486,0.442 5.1,-0.3 0.99,-0.456 1.898,-1.186 2.578,-2.064 1.291,-1.674 1.746,-3.849 1.238,-5.906 -0.254,-1.032 -0.736,-1.979 -1.428,-2.807 -0.164,-0.196 -0.512,-0.554 -0.707,-0.727 -0.607,-0.541 -1.281,-0.955 -2.043,-1.261 -0.936,-0.374 -2.018,-0.546 -2.998,-0.479 -0.939,0.063 -1.77,0.282 -2.594,0.684 -0.748,0.361 -1.361,0.802 -1.941,1.395 -0.531,0.546 -0.928,1.102 -1.266,1.78 l -0.096,0.19 h -3.023 c -1.664,0 -3.029,-0.004 -3.033,-0.008 -0.008,-0.011 0.098,-0.429 0.18,-0.703 0.65,-2.209 1.887,-4.199 3.568,-5.752 2.084,-1.92 4.705,-3.084 7.518,-3.341 0.422,-0.038 0.777,-0.051 1.318,-0.043 0.531,0.009 0.803,0.023 1.258,0.075 3.873,0.438 7.338,2.632 9.398,5.957 1.574,2.539 2.201,5.561 1.773,8.536 -0.447,3.112 -2.051,5.967 -4.488,7.987 -1.455,1.205 -3.184,2.08 -5.025,2.54 -1.184,0.305 -2.467,0.434 -3.674,0.379 z"
   id="path294" />
					</g>
				</g>
				<line
   fill="none"
   stroke="#ffffff"
   stroke-miterlimit="10"
   x1="493.65302"
   y1="24"
   x2="493.65302"
   y2="52"
   id="line299" />
			</g>
	</g>
</g>
<text
   xml:space="preserve"
   style="font-style:normal;font-variant:normal;font-weight:normal;font-stretch:normal;font-size:18.4408px;line-height:1.25;font-family:Alegreya;-inkscape-font-specification:Alegreya;fill:#e6e6e6;fill-opacity:1;stroke:none;stroke-width:0.461021"
   x="640.35663"
   y="44.440834"
   id="text4453"
   inkscape:export-filename="/home/emmabuntus/Travail/EmmaDE5_64/emmabuntus_de_4/Ecrans/Fond_ecran_demarrage/theme_ice-main/SVG/text4453.png"
   inkscape:export-xdpi="96"
   inkscape:export-ydpi="96"><tspan
     sodipodi:role="line"
     id="tspan4451"
     x="640.35663"
     y="44.440834"
     style="stroke-width:0.461021;fill:#e6e6e6;fill-opacity:1">5</tspan></text></svg>
