<?xml version="1.0" encoding="UTF-8" standalone="no"?>
<svg
   version="1.1"
   id="Layer_1"
   x="0px"
   y="0px"
   width="1920px"
   height="1200px"
   viewBox="0 0 1920 1200"
   enable-background="new 0 0 1920 1200"
   xml:space="preserve"
   sodipodi:docname="emma_Ice_login.svg"
   inkscape:version="1.1.1 (3bf5ae0d25, 2021-09-20)"
   inkscape:export-filename="/home/emmabuntus/Travail/EmmaDE4_64/emmabuntus_de_4/Ecrans/Fond_ecran_demarrage/theme_ice-main/SVG/emma_Ice_login2.png"
   inkscape:export-xdpi="96"
   inkscape:export-ydpi="96"
   xmlns:inkscape="http://www.inkscape.org/namespaces/inkscape"
   xmlns:sodipodi="http://sodipodi.sourceforge.net/DTD/sodipodi-0.dtd"
   xmlns:xlink="http://www.w3.org/1999/xlink"
   xmlns="http://www.w3.org/2000/svg"
   xmlns:svg="http://www.w3.org/2000/svg"
   xmlns:rdf="http://www.w3.org/1999/02/22-rdf-syntax-ns#"
   xmlns:cc="http://creativecommons.org/ns#"
   xmlns:dc="http://purl.org/dc/elements/1.1/"><metadata
   id="metadata227"><rdf:RDF><cc:Work
       rdf:about=""><dc:format>image/svg+xml</dc:format><dc:type
         rdf:resource="http://purl.org/dc/dcmitype/StillImage" /><dc:title /></cc:Work></rdf:RDF></metadata><defs
   id="defs225">
	<defs
   id="defs3">
		<rect
   id="SVGID_1_"
   width="1920"
   height="1200" />
	</defs>
	<clipPath
   id="SVGID_2_">
		<use
   xlink:href="#SVGID_1_"
   overflow="visible"
   id="use5" />
	</clipPath>
	
		<linearGradient
   id="SVGID_3_"
   gradientUnits="userSpaceOnUse"
   x1="204.8931"
   y1="1613.9473"
   x2="1535.0167"
   y2="-144.5231"
   gradientTransform="matrix(1.1562,0.0057,0.0052,-1.0692,-9.5085,1543.1257)">
		<stop
   offset="0"
   style="stop-color:#689CAE"
   id="stop8" />
		<stop
   offset="0.1409"
   style="stop-color:#48839E"
   id="stop10" />
		<stop
   offset="0.3129"
   style="stop-color:#276A8E"
   id="stop12" />
		<stop
   offset="0.4567"
   style="stop-color:#135B84"
   id="stop14" />
		<stop
   offset="0.5538"
   style="stop-color:#0C5580"
   id="stop16" />
		<stop
   offset="0.5974"
   style="stop-color:#0A4E77"
   id="stop18" />
		<stop
   offset="0.7493"
   style="stop-color:#053A5E"
   id="stop20" />
		<stop
   offset="0.8878"
   style="stop-color:#012E4F"
   id="stop22" />
		<stop
   offset="1"
   style="stop-color:#002A4A"
   id="stop24" />
	</linearGradient>
	
	
		<linearGradient
   id="SVGID_4_"
   gradientUnits="userSpaceOnUse"
   x1="3068.5449"
   y1="-670.4341"
   x2="3156.0239"
   y2="-2530.8657"
   gradientTransform="matrix(-1.1562,-0.0057,-0.0047,0.9483,4620.9702,1564.0886)">
		<stop
   offset="0"
   style="stop-color:#00E3E0;stop-opacity:0"
   id="stop29" />
		<stop
   offset="0.1583"
   style="stop-color:#02E3E0;stop-opacity:0"
   id="stop31" />
		<stop
   offset="0.2153"
   style="stop-color:#09E4E0;stop-opacity:0"
   id="stop33" />
		<stop
   offset="0.256"
   style="stop-color:#14E6E0;stop-opacity:0"
   id="stop35" />
		<stop
   offset="0.2888"
   style="stop-color:#25E9E0;stop-opacity:0"
   id="stop37" />
		<stop
   offset="0.317"
   style="stop-color:#3BEDE0;stop-opacity:0"
   id="stop39" />
		<stop
   offset="0.3419"
   style="stop-color:#57F1E0;stop-opacity:0"
   id="stop41" />
		<stop
   offset="0.3644"
   style="stop-color:#77F6E0;stop-opacity:0"
   id="stop43" />
		<stop
   offset="0.3845"
   style="stop-color:#9BFCE0;stop-opacity:0"
   id="stop45" />
		<stop
   offset="0.3925"
   style="stop-color:#ACFFE0;stop-opacity:0"
   id="stop47" />
		<stop
   offset="0.6748"
   style="stop-color:#AEFEDE;stop-opacity:0.4647"
   id="stop49" />
		<stop
   offset="0.7764"
   style="stop-color:#B4FBD7;stop-opacity:0.632"
   id="stop51" />
		<stop
   offset="0.8489"
   style="stop-color:#C0F6CC;stop-opacity:0.7513"
   id="stop53" />
		<stop
   offset="0.9075"
   style="stop-color:#D0EEBB;stop-opacity:0.8478"
   id="stop55" />
		<stop
   offset="0.9571"
   style="stop-color:#E6E4A5;stop-opacity:0.9295"
   id="stop57" />
		<stop
   offset="1"
   style="stop-color:#FFD88B"
   id="stop59" />
	</linearGradient>
	
	
	
	
</defs><sodipodi:namedview
   pagecolor="#ffffff"
   bordercolor="#666666"
   borderopacity="1"
   objecttolerance="10"
   gridtolerance="10"
   guidetolerance="10"
   inkscape:pageopacity="0"
   inkscape:pageshadow="2"
   inkscape:window-width="1680"
   inkscape:window-height="997"
   id="namedview223"
   showgrid="false"
   inkscape:zoom="8.5466666"
   inkscape:cx="1057.6638"
   inkscape:cy="1064.7426"
   inkscape:window-x="0"
   inkscape:window-y="25"
   inkscape:window-maximized="1"
   inkscape:current-layer="Layer_1"
   inkscape:pagecheckerboard="0" />
<path
   clip-path="url(#SVGID_2_)"
   fill="url(#SVGID_3_)"
   d="m 970.16,1677.629 c 793.597,3.896 1410.215,-143.013 1412.973,-705.627 2.771,-562.626 -151.641,-1275.993 -1353.526,-1281.891 l 3.13,0.017 c -1228.968,-6.032 -1363.29,705.918 -1366.05,1268.541 -2.76,562.619 566.291,715.591 1359.895,719.483 z"
   id="path27"
   style="fill:url(#SVGID_3_)" /><path
   clip-path="url(#SVGID_2_)"
   fill="url(#SVGID_4_)"
   d="m 1072.623,-852.174 c -793.597,-3.894 -1410.134,126.055 -1412.582,625.028 -2.456,498.986 152.349,1131.75 1354.242,1137.648 l -3.137,-0.018 c 1228.974,6.036 1362.897,-625.313 1365.348,-1124.3 2.449,-498.977 -566.688,-634.966 -1360.289,-638.859 z"
   id="path62"
   style="fill:url(#SVGID_4_)" /><g
   id="TRIANGLES"
   clip-path="url(#SVGID_2_)"
   inkscape:export-filename="/home/emmabuntus/Travail/EmmaDE5_64/emmabuntus_de_4/Ecrans/Fond_ecran_demarrage/theme_ice-main/PNG/Emma_login.png"
   inkscape:export-xdpi="96"
   inkscape:export-ydpi="96">
		
			<radialGradient
   id="SVGID_5_"
   cx="5252.7129"
   cy="2508.791"
   r="1008.4255"
   gradientTransform="matrix(-0.3862,-0.7151,-0.45,0.2431,4415.5625,4110.873)"
   gradientUnits="userSpaceOnUse">
			<stop
   offset="0"
   style="stop-color:#FFD88B"
   id="stop64" />
			<stop
   offset="0.3109"
   style="stop-color:#ECE5A6;stop-opacity:0.7513"
   id="stop66" />
			<stop
   offset="1"
   style="stop-color:#C3FFE0;stop-opacity:0.2"
   id="stop68" />
		</radialGradient>
		<polygon
   opacity="0.2"
   fill="url(#SVGID_5_)"
   enable-background="new    "
   points="725.614,901.594 552.285,1137.448 1137.851,1380.021 1823.078,531.2 "
   id="polygon71"
   style="fill:url(#SVGID_5_)" />
		
			<radialGradient
   id="SVGID_6_"
   cx="5245.1416"
   cy="1770.5586"
   r="1160.9265"
   gradientTransform="matrix(-0.3862,-0.7151,-0.45,0.2431,4415.5625,4110.873)"
   gradientUnits="userSpaceOnUse">
			<stop
   offset="0"
   style="stop-color:#FFD88B"
   id="stop73" />
			<stop
   offset="0.3109"
   style="stop-color:#ECE5A6;stop-opacity:0.7513"
   id="stop75" />
			<stop
   offset="1"
   style="stop-color:#C3FFE0;stop-opacity:0.2"
   id="stop77" />
		</radialGradient>
		<polygon
   opacity="0.2"
   fill="url(#SVGID_6_)"
   enable-background="new    "
   points="1449.439,1212.319 725.798,901.932 2460.479,679.057 2283.157,762.049 "
   id="polygon80"
   style="fill:url(#SVGID_6_)" />
		
			<radialGradient
   id="SVGID_7_"
   cx="5168.1562"
   cy="2012.9902"
   r="1340.6489"
   gradientTransform="matrix(-0.3862,-0.7151,-0.45,0.2431,4415.5625,4110.873)"
   gradientUnits="userSpaceOnUse">
			<stop
   offset="0"
   style="stop-color:#FFD88B"
   id="stop82" />
			<stop
   offset="0.3109"
   style="stop-color:#ECE5A6;stop-opacity:0.7513"
   id="stop84" />
			<stop
   offset="1"
   style="stop-color:#C3FFE0;stop-opacity:0.2"
   id="stop86" />
		</radialGradient>
		<polygon
   opacity="0.2"
   fill="url(#SVGID_7_)"
   enable-background="new    "
   points="1138.097,1380.471 552.47,1137.793 2475.082,671.171 2242.031,784.262 "
   id="polygon89"
   style="fill:url(#SVGID_7_)" />
		
			<radialGradient
   id="SVGID_8_"
   cx="4336.4414"
   cy="-2693.0742"
   r="1056.5667"
   gradientTransform="matrix(-0.8065,-0.1007,-0.0634,0.5075,4883.0352,2494.9043)"
   gradientUnits="userSpaceOnUse">
			<stop
   offset="0"
   style="stop-color:#FFD88B"
   id="stop91" />
			<stop
   offset="0.3109"
   style="stop-color:#ECE5A6;stop-opacity:0.7513"
   id="stop93" />
			<stop
   offset="1"
   style="stop-color:#C3FFE0;stop-opacity:0.2"
   id="stop95" />
		</radialGradient>
		<polygon
   opacity="0.2"
   fill="url(#SVGID_8_)"
   enable-background="new    "
   points="1694.523,854.31 1974.777,2.509 1213.674,977.316 1138.097,1380.471 "
   id="polygon98"
   style="fill:url(#SVGID_8_)" />
		
			<radialGradient
   id="SVGID_9_"
   cx="2773.5469"
   cy="6552.0518"
   r="1179.2317"
   gradientTransform="matrix(0.4317,-0.6886,-0.4334,-0.2717,2194.1997,4689.4346)"
   gradientUnits="userSpaceOnUse">
			<stop
   offset="0"
   style="stop-color:#FFD88B"
   id="stop100" />
			<stop
   offset="0.3109"
   style="stop-color:#ECE5A6;stop-opacity:0.7513"
   id="stop102" />
			<stop
   offset="1"
   style="stop-color:#C3FFE0;stop-opacity:0.2"
   id="stop104" />
		</radialGradient>
		<polygon
   opacity="0.2"
   fill="url(#SVGID_9_)"
   enable-background="new    "
   points="-64.157,391.509 446.042,711.698 1167.922,1607.246 5.875,862.8 "
   id="polygon107"
   style="fill:url(#SVGID_9_)" />
		
			<radialGradient
   id="SVGID_10_"
   cx="3050.0156"
   cy="6172.9805"
   r="968.74591"
   gradientTransform="matrix(0.4317,-0.6886,-0.4334,-0.2717,2194.1997,4689.4346)"
   gradientUnits="userSpaceOnUse">
			<stop
   offset="0"
   style="stop-color:#FFD88B"
   id="stop109" />
			<stop
   offset="0.3109"
   style="stop-color:#ECE5A6;stop-opacity:0.7513"
   id="stop111" />
			<stop
   offset="1"
   style="stop-color:#C3FFE0;stop-opacity:0.2"
   id="stop113" />
		</radialGradient>
		<polygon
   opacity="0.2"
   fill="url(#SVGID_10_)"
   enable-background="new    "
   points="122.292,824.205 1167.922,1607.246 1382.738,768.178 342.871,652.078 "
   id="polygon116"
   style="fill:url(#SVGID_10_)" />
		
			<radialGradient
   id="SVGID_11_"
   cx="-1861.231"
   cy="-2115.0728"
   r="872.91968"
   gradientTransform="matrix(0.2084,0.7856,0.4944,-0.1312,1955.615,2358.1887)"
   gradientUnits="userSpaceOnUse">
			<stop
   offset="0"
   style="stop-color:#FFD88B"
   id="stop118" />
			<stop
   offset="0.3109"
   style="stop-color:#ECE5A6;stop-opacity:0.7513"
   id="stop120" />
			<stop
   offset="1"
   style="stop-color:#C3FFE0;stop-opacity:0.2"
   id="stop122" />
		</radialGradient>
		<polygon
   opacity="0.2"
   fill="url(#SVGID_11_)"
   enable-background="new    "
   points="556.197,559.299 -96.416,843.126 122.292,824.205 1167.922,1607.246 "
   id="polygon125"
   style="fill:url(#SVGID_11_)" />
		
			<radialGradient
   id="SVGID_12_"
   cx="-2118.0234"
   cy="-1102.7412"
   r="798.41132"
   gradientTransform="matrix(0.2084,0.7856,0.4944,-0.1312,1955.615,2358.1887)"
   gradientUnits="userSpaceOnUse">
			<stop
   offset="0"
   style="stop-color:#FFD88B"
   id="stop127" />
			<stop
   offset="0.3109"
   style="stop-color:#ECE5A6;stop-opacity:0.7513"
   id="stop129" />
			<stop
   offset="1"
   style="stop-color:#C3FFE0;stop-opacity:0.2"
   id="stop131" />
		</radialGradient>
		<polygon
   opacity="0.2"
   fill="url(#SVGID_12_)"
   enable-background="new    "
   points="1473.822,687.293 1202.066,1166.31 405.221,768.178 556.197,559.299 "
   id="polygon134"
   style="fill:url(#SVGID_12_)" />
	</g><g
   id="Debian_Ed4_1_"
   clip-path="url(#SVGID_2_)"
   transform="translate(-61.4015,-58)">
		<path
   fill="#ffffff"
   d="m 926.576,1092.568 c 0.029,-1.77 0.029,-3.067 -0.031,-5.146 -0.063,-2.016 -0.341,-2.387 -0.868,-2.978 0.961,0.063 2.295,0.063 3.287,0.063 0.744,0 1.488,-0.031 2.232,-0.031 0.743,0 1.457,-0.029 2.2,-0.029 1.644,0 3.474,0.187 4.897,1.021 2.697,1.582 3.752,4.93 3.752,9.332 0,7.813 -2.914,11.566 -9.858,11.566 -0.808,0 -1.735,-0.031 -2.729,-0.031 -1.303,0 -2.915,0 -3.876,0.031 0.961,-1.148 0.961,-1.431 0.992,-6.666 v -7.135 h 0.001 10e-4 z m 3.409,4.62 c 0,1.303 0,4.991 0.093,5.61 0.094,0.869 0.435,1.209 1.984,1.209 4.311,0 6.418,-2.17 6.418,-8.558 0,-5.521 -1.115,-8.684 -6.076,-8.684 -0.775,0 -1.612,0.063 -2.326,0.123 -0.063,1.521 -0.093,1.922 -0.093,6.018 z"
   id="path137" />
		<path
   fill="#ffffff"
   d="M 955.749,1098.366 H 947.5 c 0,1.521 0.063,5.923 4.898,5.923 1.859,0 2.696,-0.527 3.35,-0.931 -0.188,0.961 -0.342,1.674 -0.311,2.791 -0.561,0.152 -1.582,0.465 -3.689,0.465 -4.744,0 -7.565,-2.479 -7.565,-8.774 0,-1.488 0,-8.496 6.325,-8.496 4.589,0 5.303,3.565 5.303,7.192 z m -3.009,-2.137 c 0.062,-2.203 -0.124,-4.869 -2.543,-4.869 -2.201,0 -2.729,2.296 -2.76,4.869 z"
   id="path139" />
		<path
   fill="#ffffff"
   d="m 958.288,1093.623 c 0,-6.666 0,-8.713 -1.209,-9.209 1.333,-0.123 2.573,-0.279 4.589,-1.209 -0.248,2.821 -0.279,8.34 -0.279,9.922 0.467,-1.271 1.333,-3.752 4.312,-3.752 1.487,0 2.884,0.744 3.753,2.201 0.896,1.551 1.021,4 1.021,5.116 0,1.828 -0.312,4.248 -1.209,6.046 -1.892,3.877 -5.396,3.877 -6.604,3.877 -1.892,0 -3.474,-0.279 -4.744,-0.775 0.372,-0.991 0.372,-2.295 0.372,-4.59 z m 6.076,-1.425 c -0.278,0 -1.735,0.029 -2.388,2.229 -0.219,0.685 -0.496,2.076 -0.496,4.744 0,2.232 0,4.154 0.063,5.271 0.403,0.094 1.023,0.188 1.521,0.188 3.597,0 4.123,-3.877 4.123,-6.76 -10e-4,-2.417 -0.466,-5.672 -2.823,-5.672 z"
   id="path141" />
		<path
   fill="#ffffff"
   d="m 977.291,1106.428 c -0.619,-0.092 -1.055,-0.152 -1.953,-0.152 -0.991,0 -1.674,0.063 -2.387,0.152 0.309,-0.588 0.434,-0.866 0.525,-2.883 0.125,-2.761 0.152,-10.14 -0.063,-11.688 -0.154,-1.179 -0.435,-1.361 -0.867,-1.675 2.543,-0.248 3.256,-0.434 4.435,-0.991 -0.247,1.362 -0.278,2.049 -0.278,4.123 -0.063,10.696 -0.096,11.843 0.588,13.114 z m -2.264,-18.48 c -1.115,0 -1.736,-0.809 -1.736,-1.983 0,-0.869 0.279,-2.108 1.769,-2.108 1.396,0 1.675,1.057 1.675,1.983 0.029,1.117 -0.342,2.108 -1.708,2.108 z"
   id="path143" />
		<path
   fill="#ffffff"
   d="m 986.094,1095.793 c 0.838,0 1.334,0.063 1.924,0.094 0,-2.418 0,-4.123 -2.572,-4.123 -1.611,0 -3.193,0.559 -4.402,1.611 -0.278,-1.334 -0.59,-1.923 -0.961,-2.604 0.896,-0.467 2.697,-1.396 5.77,-1.396 4.648,0 5.271,2.325 5.271,4.682 l -0.031,6.326 c 0,1.645 0,2.819 0.063,4 0.094,1.209 0.277,1.521 0.619,2.045 -0.525,-0.027 -1.021,-0.092 -1.551,-0.092 -0.932,0 -1.486,0.063 -2.047,0.092 -0.094,-1.084 -0.125,-1.922 -0.094,-3.285 -0.588,1.303 -1.55,3.41 -4.402,3.41 -0.246,0 -1.021,0 -1.799,-0.342 -1.734,-0.836 -2.322,-2.789 -2.322,-4.744 -0.007,-4.154 2.597,-5.674 6.534,-5.674 z m 0.342,1.862 c -1.178,0 -3.78,0.217 -3.78,3.131 0,1.52 0.401,3.068 2.263,3.068 0.808,0 1.895,-0.402 2.543,-1.8 0.527,-1.086 0.561,-2.447 0.621,-4.399 z"
   id="path145" />
		<path
   fill="#ffffff"
   d="m 1005.936,1103.359 c 0.031,1.056 0.031,2.171 0.468,3.066 -0.685,-0.062 -1.087,-0.153 -2.356,-0.153 -0.744,0 -1.146,0.063 -1.734,0.153 0.125,-0.4 0.188,-0.557 0.247,-1.084 0.095,-0.713 0.153,-3.103 0.153,-3.938 v -3.352 c 0,-1.457 0,-3.563 -0.092,-4.309 -0.063,-0.527 -0.218,-1.955 -2.018,-1.955 -1.768,0 -2.355,1.303 -2.572,2.357 -0.248,1.086 -0.248,2.264 -0.248,6.852 0.029,3.97 0.029,4.343 0.342,5.427 -0.526,-0.062 -1.179,-0.123 -2.108,-0.123 -0.743,0 -1.238,0.03 -1.857,0.123 0.218,-0.495 0.341,-0.743 0.401,-2.479 0.063,-1.705 0.188,-10.076 -0.094,-12.063 -0.154,-1.209 -0.465,-1.487 -0.807,-1.8 2.512,-0.123 3.316,-0.525 4.092,-0.93 v 3.287 c 0.373,-0.961 1.146,-3.104 4.248,-3.104 3.877,0 3.907,2.822 3.938,4.685 v 9.34 z"
   id="path147" />
		<path
   fill="#ffffff"
   d="m 1028.004,1105.096 -0.154,1.271 h -10.445 l 0.094,-6.016 -0.094,-13.795 h 10.416 l 0.124,0.188 -0.188,1.271 -4.618,-0.063 -4.093,0.029 -0.063,7.473 3.875,0.03 3.314,-0.03 0.125,0.152 -0.155,1.271 -7.159,-0.031 -0.031,3.41 0.063,4.713 3.999,0.029 4.867,-0.093 z"
   id="path149" />
		<path
   fill="#ffffff"
   d="m 1040.623,1100.229 0.063,3.439 c 0,0.537 0.07,0.914 0.219,1.131 0.145,0.218 0.4,0.326 0.771,0.326 0.354,0 0.734,-0.104 1.147,-0.313 l 0.218,0.155 -0.188,1.021 c -0.495,0.311 -1.021,0.477 -1.58,0.496 -1.182,-0.041 -1.818,-0.775 -1.924,-2.201 h -0.153 c -0.643,0.641 -1.263,1.137 -1.86,1.487 -0.599,0.352 -1.271,0.601 -2.015,0.743 -1.86,0 -3.309,-0.618 -4.341,-1.857 -1.033,-1.24 -1.552,-2.979 -1.552,-5.209 0,-2.355 0.591,-4.182 1.77,-5.473 1.179,-1.291 2.831,-1.938 4.96,-1.938 0.889,0 1.891,0.135 3.008,0.401 v -7.688 l 1.58,-0.154 z m -8.34,-5.426 c -0.891,1.035 -1.332,2.513 -1.332,4.436 0,1.859 0.381,3.308 1.146,4.341 0.767,1.034 1.817,1.551 3.161,1.551 0.725,0 1.406,-0.183 2.047,-0.543 0.643,-0.361 1.271,-0.937 1.894,-1.721 l 0.029,-2.511 -0.063,-6.418 c -1.096,-0.455 -2.148,-0.684 -3.162,-0.684 -1.591,0 -2.831,0.517 -3.72,1.549 z"
   id="path151" />
		<path
   fill="#ffffff"
   d="m 1048.17,1086.559 c 0.176,0.188 0.264,0.437 0.264,0.742 0,0.332 -0.094,0.596 -0.277,0.791 -0.188,0.197 -0.443,0.295 -0.773,0.295 -0.332,0 -0.586,-0.088 -0.76,-0.264 -0.177,-0.177 -0.265,-0.429 -0.265,-0.761 0,-0.33 0.093,-0.596 0.276,-0.791 0.188,-0.194 0.445,-0.293 0.775,-0.293 0.332,0 0.584,0.093 0.76,0.281 z m -1.504,13.764 -0.029,-7.938 1.551,-0.187 -0.03,8.029 0.03,6.14 h -1.582 z"
   id="path153" />
		<path
   fill="#ffffff"
   d="m 1059.965,1104.414 0.188,0.153 -0.155,1.115 c -1.033,0.537 -1.964,0.814 -2.789,0.836 -1.076,-0.123 -1.871,-0.5 -2.388,-1.131 -0.519,-0.631 -0.774,-1.535 -0.774,-2.713 l 0.063,-2.789 -0.031,-6.447 h -1.922 l -0.124,-0.153 0.124,-0.992 h 1.922 v -2.819 l 1.364,-0.56 0.187,0.154 -0.031,3.225 h 4.494 l 0.125,0.154 -0.125,0.991 h -4.494 l -0.094,9.084 c 0,0.89 0.177,1.546 0.527,1.968 0.352,0.424 0.889,0.637 1.609,0.637 0.723,0 1.498,-0.238 2.324,-0.713 z"
   id="path155" />
		<path
   fill="#ffffff"
   d="m 1064.972,1086.559 c 0.178,0.188 0.266,0.437 0.266,0.742 0,0.332 -0.095,0.596 -0.278,0.791 -0.187,0.197 -0.443,0.295 -0.773,0.295 -0.33,0 -0.584,-0.088 -0.762,-0.264 -0.176,-0.177 -0.264,-0.429 -0.264,-0.761 0,-0.33 0.094,-0.596 0.279,-0.791 0.186,-0.194 0.441,-0.293 0.771,-0.293 0.332,0 0.584,0.093 0.761,0.281 z m -1.505,13.764 -0.029,-7.938 1.552,-0.187 -0.03,8.029 0.03,6.14 h -1.581 z"
   id="path157" />
		<path
   fill="#ffffff"
   d="m 1079.883,1093.92 c 1.043,1.25 1.564,2.992 1.564,5.226 0,2.334 -0.548,4.151 -1.646,5.454 -1.097,1.305 -2.612,1.953 -4.558,1.953 -1.859,0 -3.309,-0.625 -4.34,-1.875 -1.033,-1.25 -1.553,-2.979 -1.553,-5.191 0,-2.334 0.543,-4.157 1.63,-5.473 1.085,-1.313 2.599,-1.969 4.542,-1.969 1.865,0 3.316,0.625 4.361,1.875 z m -7.797,0.883 c -0.807,1.035 -1.209,2.492 -1.209,4.371 0,1.983 0.388,3.51 1.162,4.574 0.774,1.063 1.864,1.596 3.271,1.596 1.468,0 2.604,-0.512 3.407,-1.535 0.809,-1.021 1.21,-2.475 1.21,-4.354 0,-1.984 -0.394,-3.513 -1.179,-4.589 -0.785,-1.073 -1.881,-1.61 -3.285,-1.61 -1.445,0 -2.571,0.515 -3.377,1.547 z"
   id="path159" />
		<path
   fill="#ffffff"
   d="m 1094.344,1096.603 c 0.021,-0.99 -0.223,-1.763 -0.729,-2.31 -0.507,-0.549 -1.227,-0.822 -2.153,-0.822 -0.744,0 -1.51,0.226 -2.295,0.666 -0.785,0.445 -1.539,1.08 -2.264,1.906 l -0.029,4.187 0.092,6.141 h -1.61 l 0.094,-6.045 -0.063,-7.938 1.521,-0.186 v 2.264 h 0.154 c 0.7,-0.682 1.432,-1.229 2.187,-1.643 0.754,-0.414 1.482,-0.662 2.188,-0.744 1.426,0 2.521,0.366 3.284,1.1 0.767,0.734 1.139,1.773 1.115,3.115 l -0.031,3.969 0.063,6.107 h -1.611 z"
   id="path161" />
		
	</g><g
   id="LOGO_1_"
   clip-path="url(#SVGID_2_)"
   transform="translate(-52.863)"
   inkscape:export-xdpi="96"
   inkscape:export-ydpi="96">
		<g
   id="g186">
			<path
   fill="#ffffff"
   d="m 832.215,134.849 h 43.512 v 13.207 h -27.119 v 10.377 h 24.881 v 13.208 h -24.881 v 10.377 h 27.004 v 13.207 h -43.396 v -60.376 z"
   id="path166" />
			<path
   fill="#ffffff"
   d="m 884.087,149.943 h 15.448 v 8.608 h 0.471 c 1.887,-5.66 6.692,-9.198 12.972,-9.198 6.368,0 11.438,3.656 12.384,9.198 h 0.472 c 1.532,-5.542 6.957,-9.198 13.679,-9.198 8.667,0 14.622,6.044 14.622,15.33 v 30.542 H 937.86 V 168.81 c 0,-3.95 -2.184,-6.367 -5.542,-6.367 -3.36,0 -5.424,2.417 -5.424,6.367 v 26.415 H 911.328 V 168.81 c 0,-3.95 -2.182,-6.367 -5.542,-6.367 -3.36,0 -5.424,2.417 -5.424,6.367 v 26.415 h -16.273 v -45.282 z"
   id="path168" />
			<path
   fill="#ffffff"
   d="m 962.133,149.943 h 15.447 v 8.608 h 0.474 c 1.889,-5.66 6.69,-9.198 12.973,-9.198 6.366,0 11.438,3.656 12.382,9.198 h 0.473 c 1.533,-5.542 6.957,-9.198 13.68,-9.198 8.668,0 14.621,6.044 14.621,15.33 v 30.542 h -16.271 V 168.81 c 0,-3.95 -2.182,-6.367 -5.542,-6.367 -3.36,0 -5.425,2.417 -5.425,6.367 v 26.415 H 989.381 V 168.81 c 0,-3.95 -2.182,-6.367 -5.543,-6.367 -3.359,0 -5.424,2.417 -5.424,6.367 v 26.415 h -16.273 v -45.282 z"
   id="path170" />
			<path
   fill="#ffffff"
   d="m 1038.057,182.725 c 0,-9.936 7.281,-13.708 16.627,-14.386 7.605,-0.561 10.494,-1.386 10.494,-4.009 v -0.118 c 0,-2.358 -2.004,-3.655 -4.834,-3.655 -3.096,0 -5.158,1.326 -5.543,4.127 h -14.975 c 0.561,-8.255 7.223,-15.33 20.754,-15.33 12.939,0 20.871,6.486 20.871,14.858 v 31.013 h -15.212 v -6.367 h -0.354 c -2.74,5.07 -7.19,7.074 -13.09,7.074 -8.666,0 -14.738,-4.186 -14.738,-13.207 z m 27.24,-3.537 v -3.773 c -1.711,0.707 -3.894,1.238 -6.486,1.65 -3.771,0.59 -5.424,2.389 -5.424,4.717 0,2.535 1.945,3.891 4.719,3.891 3.683,-0.001 7.191,-2.358 7.191,-6.485 z"
   id="path172" />
			<path
   fill="#ffffff"
   d="m 1088.986,134.849 h 16.271 v 22.994 h 0.236 c 1.768,-4.599 6.014,-8.49 12.731,-8.49 8.964,0 17.688,6.84 17.688,23.231 0,15.684 -8.138,23.229 -17.807,23.229 -6.367,0 -10.729,-3.42 -12.615,-8.02 h -0.355 v 7.43 h -16.154 v -60.374 z m 23.114,48.466 c 4.48,0 7.074,-4.01 7.074,-10.73 0,-6.722 -2.594,-10.731 -7.074,-10.731 -4.48,0 -7.191,4.009 -7.191,10.731 0,6.603 2.708,10.73 7.191,10.73 z"
   id="path174" />
			<path
   fill="#ffffff"
   d="m 1172.107,149.943 h 16.271 v 45.282 h -15.447 v -8.609 h -0.471 c -1.976,5.779 -7.164,9.199 -13.914,9.199 -9.521,0 -15.771,-7.076 -15.803,-16.98 v -28.891 h 16.272 v 25.471 c 0.026,4.479 2.389,7.193 6.483,7.193 4.039,0 6.633,-2.713 6.604,-7.193 v -25.472 z"
   id="path176" />
			<path
   fill="#ffffff"
   d="m 1212.895,195.225 h -16.271 v -45.282 h 15.447 v 8.608 h 0.473 c 1.977,-5.72 7.252,-9.198 13.914,-9.198 9.611,0 15.832,7.135 15.801,16.98 v 28.891 h -16.271 v -25.47 c 0.028,-4.481 -2.391,-7.194 -6.485,-7.194 -4.039,0 -6.574,2.713 -6.604,7.194 v 25.471 z"
   id="path178" />
			<path
   fill="#ffffff"
   d="m 1277.268,161.735 h -7.781 v 18.925 c 0,1.887 0.941,2.83 3.064,2.83 0.975,0 2.563,-0.324 3.186,-0.471 l 2.355,11.438 c -1.473,0.443 -4.215,1.209 -7.898,1.416 -11.23,0.619 -17.1,-4.186 -16.98,-13.68 v -20.458 h -5.776 v -11.792 h 5.776 v -10.849 h 16.273 v 10.849 h 7.781 z"
   id="path180" />
			<path
   fill="#ffffff"
   d="m 1313.225,149.943 h 16.273 v 45.282 h -15.447 v -8.609 h -0.473 c -1.978,5.779 -7.162,9.199 -13.914,9.199 -9.521,0 -15.771,-7.076 -15.802,-16.98 v -28.891 h 16.271 v 25.471 c 0.029,4.479 2.388,7.193 6.484,7.193 4.039,0 6.633,-2.713 6.604,-7.193 v -25.472 z m -22.995,-12.145 c 0,-3.773 3.184,-6.84 7.191,-6.84 3.893,0 7.074,3.066 7.074,6.84 0,3.774 -3.187,6.839 -7.074,6.839 -4.007,-0.001 -7.191,-3.066 -7.191,-6.839 z m 18.75,0 c 0,-3.773 3.184,-6.84 7.191,-6.84 3.893,0 7.074,3.066 7.074,6.84 0,3.774 -3.187,6.839 -7.074,6.839 -4.007,-0.001 -7.191,-3.066 -7.191,-6.839 z"
   id="path182" />
			<path
   fill="#ffffff"
   d="m 1364.154,164.683 c -0.236,-2.771 -2.918,-4.481 -6.133,-4.481 -2.803,0 -5.131,1.062 -5.07,2.948 -0.059,1.326 0.914,2.564 4.363,3.184 l 9.195,1.651 c 9.26,1.679 13.738,5.572 13.799,12.263 -0.061,9.699 -9.285,15.801 -21.814,15.801 -13.854,0 -21.875,-6.16 -22.76,-15.447 h 16.156 c 0.439,2.889 3.035,4.482 6.721,4.482 2.979,0 5.131,-1.063 5.188,-2.949 -0.059,-1.709 -1.65,-2.652 -5.188,-3.301 l -8.02,-1.416 c -9.229,-1.621 -13.854,-6.191 -13.797,-13.325 -0.06,-9.434 7.932,-14.74 20.871,-14.74 13.09,0 21.049,5.749 21.461,15.33 z"
   id="path184" />
		</g>
		<g
   id="BACK_x5F_WHITE_1_">
			<path
   fill="#ffffff"
   d="m 760.921,99.244 c 10.219,0 18.506,8.283 18.506,18.504 0,4.789 -1.838,9.143 -4.826,12.428 3.902,4.617 7.08,9.75 9.459,15.326 3.212,7.518 4.844,15.502 4.844,23.727 0,8.227 -1.631,16.209 -4.844,23.73 -2.125,4.979 -4.896,9.6 -8.24,13.822 3.711,3.385 6.051,8.242 6.051,13.658 0,10.219 -8.283,18.504 -18.502,18.504 -7.816,0 -14.488,-4.857 -17.199,-11.713 -5.998,1.898 -12.242,2.869 -18.633,2.869 -8.271,0 -16.293,-1.607 -23.855,-4.775 -7.309,-3.059 -13.868,-7.439 -19.5,-13.018 -5.641,-5.588 -10.07,-12.098 -13.172,-19.348 -0.693,-1.635 -1.305,-3.293 -1.854,-4.969 -1.052,0.188 -2.127,0.301 -3.232,0.301 -10.221,0 -18.504,-8.287 -18.504,-18.506 0,-10.217 8.283,-18.5 18.504,-18.5 0.986,0 1.945,0.098 2.89,0.246 0.622,-2.033 1.351,-4.043 2.192,-6.018 3.094,-7.246 7.52,-13.758 13.152,-19.342 5.629,-5.578 12.184,-9.961 19.48,-13.023 7.557,-3.172 15.576,-4.781 23.841,-4.789 h 0.058 c 5.58,0 11.045,0.748 16.334,2.197 2.806,-6.645 9.384,-11.311 17.05,-11.311 m -33.385,110.948 c 22.861,0 41.459,-18.375 41.459,-40.963 0,-22.586 -18.599,-40.963 -41.459,-40.963 h -0.047 c -22.83,0.021 -41.41,18.396 -41.41,40.963 0,22.586 18.596,40.963 41.457,40.963 M 760.921,97.244 c -7.677,0 -14.625,4.249 -18.151,10.961 -4.981,-1.226 -10.101,-1.846 -15.234,-1.846 h -0.059 c -8.535,0.008 -16.816,1.672 -24.612,4.945 -7.534,3.161 -14.303,7.686 -20.116,13.447 -5.814,5.762 -10.384,12.483 -13.584,19.978 -0.635,1.486 -1.224,3.035 -1.754,4.619 -0.514,-0.042 -1.006,-0.063 -1.489,-0.063 -11.306,0 -20.504,9.196 -20.504,20.5 0,11.307 9.198,20.506 20.504,20.506 0.617,0 1.237,-0.031 1.871,-0.093 0.438,1.237 0.891,2.407 1.375,3.544 3.203,7.492 7.78,14.215 13.604,19.985 5.815,5.762 12.592,10.284 20.137,13.441 7.81,3.271 16.096,4.931 24.627,4.931 5.955,0 11.842,-0.822 17.525,-2.447 3.465,6.916 10.465,11.291 18.307,11.291 11.305,0 20.502,-9.198 20.502,-20.504 0,-5.118 -1.947,-10.063 -5.396,-13.83 2.994,-4.004 5.488,-8.324 7.427,-12.865 3.318,-7.775 5.003,-16.023 5.003,-24.516 0,-8.494 -1.685,-16.741 -5.003,-24.512 -2.223,-5.209 -5.146,-10.09 -8.701,-14.532 2.738,-3.57 4.229,-7.925 4.229,-12.437 -0.002,-11.304 -9.2,-20.503 -20.508,-20.503 z m -33.385,110.948 c -21.757,0 -39.457,-17.479 -39.457,-38.963 0,-21.464 17.68,-38.942 39.412,-38.963 21.803,0 39.504,17.479 39.504,38.963 0,21.484 -17.703,38.963 -39.459,38.963 z"
   id="path188" />
			<path
   fill="#ffffff"
   d="m 726.824,136.959 c 0.231,0 0.479,0.002 0.744,0.006 1.348,0.018 2.031,0.059 3.186,0.189 9.813,1.105 18.586,6.664 23.805,15.088 3.988,6.432 5.576,14.082 4.49,21.621 -1.131,7.883 -5.189,15.107 -11.367,20.229 -3.682,3.051 -8.063,5.27 -12.727,6.436 -2.551,0.639 -5.283,0.971 -7.921,0.971 -0.466,0 -0.931,-0.01 -1.39,-0.031 -7.074,-0.328 -13.799,-2.947 -19.254,-7.502 -4.213,-3.518 -7.514,-8.146 -9.438,-13.234 -0.438,-1.156 -0.896,-2.623 -1.148,-3.664 -0.057,-0.234 -0.107,-0.429 -0.117,-0.45 -0.012,-0.031 1.537,-0.022 7.674,-0.022 h 7.686 l 0.229,0.452 c 0.633,1.271 1.51,2.589 2.443,3.677 0.447,0.523 1.357,1.425 1.881,1.87 1.771,1.508 3.764,2.626 5.963,3.354 1.779,0.59 3.627,0.879 5.478,0.879 2.538,0 5.078,-0.551 7.44,-1.639 2.512,-1.156 4.811,-2.998 6.529,-5.229 3.271,-4.24 4.424,-9.746 3.137,-14.959 -0.645,-2.615 -1.861,-5.014 -3.615,-7.109 -0.414,-0.498 -1.293,-1.402 -1.787,-1.838 -1.539,-1.365 -3.248,-2.418 -5.18,-3.188 -2.035,-0.814 -4.348,-1.252 -6.53,-1.252 -0.356,0 -0.709,0.012 -1.06,0.035 -2.381,0.166 -4.482,0.719 -6.573,1.73 -1.894,0.918 -3.444,2.031 -4.911,3.533 -1.352,1.377 -2.354,2.633 -3.209,4.355 l -0.242,0.33 h -7.658 c -4.215,0 -7.67,0.145 -7.68,0.135 -0.023,-0.025 0.246,-1.006 0.453,-1.705 1.648,-5.598 4.775,-10.601 9.038,-14.528 5.276,-4.867 11.914,-7.795 19.041,-8.442 0.859,-0.083 1.611,-0.098 2.59,-0.098 m 0,-2 c -1.028,0 -1.832,0.035 -2.774,0.122 -7.6,0.689 -14.59,3.795 -20.214,8.982 -4.527,4.172 -7.848,9.522 -9.602,15.471 -0.588,1.985 -0.831,2.808 -0.004,3.704 l 0.024,0.029 0.028,0.027 c 0.591,0.592 0.591,0.44 3.673,0.447 1.393,0.003 3.312,-0.147 5.421,-0.147 h 7.658 1.232 l 0.556,-0.95 0.242,-0.406 c 0.769,-1.544 1.646,-2.739 2.85,-3.967 1.311,-1.342 2.653,-2.289 4.356,-3.115 1.855,-0.898 3.713,-1.377 5.841,-1.525 0.296,-0.02 0.604,-0.025 0.918,-0.025 1.944,0 4.001,0.396 5.79,1.111 1.721,0.688 3.223,1.614 4.593,2.83 0.419,0.369 1.229,1.201 1.576,1.621 1.561,1.865 2.641,3.986 3.213,6.309 1.146,4.649 0.135,9.481 -2.779,13.26 -1.519,1.971 -3.572,3.617 -5.781,4.635 -2.098,0.965 -4.318,1.455 -6.604,1.455 -1.654,0 -3.285,-0.263 -4.848,-0.779 -1.948,-0.645 -3.729,-1.648 -5.295,-2.981 -0.446,-0.38 -1.282,-1.213 -1.657,-1.651 -0.824,-0.958 -1.614,-2.15 -2.172,-3.275 l -0.223,-0.438 -0.547,-1.107 h -1.252 -7.686 c -3.041,0 -4.957,-0.016 -6.115,-0.01 -2.094,0.012 -2.591,0.004 -3.2,0.883 l -0.59,0.846 0.324,0.889 c 0.02,0.078 0.051,0.203 0.083,0.336 0.272,1.135 0.754,2.665 1.222,3.902 2.057,5.439 5.523,10.303 10.026,14.061 5.819,4.861 12.89,7.614 20.441,7.965 0.488,0.021 0.985,0.033 1.48,0.033 2.808,0 5.715,-0.356 8.406,-1.031 4.936,-1.232 9.608,-3.597 13.518,-6.835 6.58,-5.456 10.866,-13.085 12.071,-21.484 1.149,-7.989 -0.543,-16.143 -4.771,-22.959 -5.576,-9 -14.79,-14.839 -25.28,-16.021 -1.217,-0.138 -1.977,-0.184 -3.384,-0.202 -0.266,-0.008 -0.522,-0.01 -0.764,-0.01 z"
   id="path190" />
			<circle
   fill="#ffffff"
   cx="726.69598"
   cy="169.59"
   r="44.825001"
   id="circle192" />
		</g>
		<g
   id="path1134-3-6-3-7-3_1_">
			<path
   fill="#0c5580"
   d="m 665.921,151.285 c 10.219,0 18.5,8.283 18.5,18.5 0,10.219 -8.281,18.506 -18.5,18.506 -10.221,0 -18.504,-8.287 -18.504,-18.506 0,-10.216 8.285,-18.5 18.504,-18.5 z"
   id="path195" />
		</g>
		<g
   id="path1134-3-6-3-7-5_1_">
			<path
   fill="#0c5580"
   d="m 760.921,99.244 c 10.219,0 18.506,8.283 18.506,18.504 0,10.219 -8.287,18.504 -18.506,18.504 -10.215,0 -18.502,-8.285 -18.502,-18.504 0,-10.22 8.289,-18.504 18.502,-18.504 z"
   id="path198" />
		</g>
		<g
   id="path1134-3-6-3-7_1_">
			<circle
   fill="#0c5580"
   cx="763.36798"
   cy="220.44099"
   r="18.503"
   id="circle201" />
		</g>
		<g
   id="path1132_1_">
			<path
   fill="#0c5580"
   d="m 727.536,230.1 v 0 c -8.271,0 -16.293,-1.607 -23.855,-4.775 -7.309,-3.059 -13.867,-7.439 -19.5,-13.018 -5.641,-5.588 -10.07,-12.098 -13.172,-19.348 -3.211,-7.521 -4.836,-15.504 -4.836,-23.73 0,-8.221 1.623,-16.199 4.832,-23.715 3.094,-7.246 7.52,-13.758 13.152,-19.342 5.629,-5.578 12.184,-9.961 19.48,-13.023 7.557,-3.172 15.576,-4.781 23.841,-4.789 h 0.058 c 8.268,0 16.295,1.604 23.857,4.773 7.305,3.059 13.865,7.441 19.5,13.021 5.643,5.584 10.07,12.094 13.166,19.348 3.212,7.518 4.844,15.502 4.844,23.727 0,8.228 -1.631,16.209 -4.844,23.73 -3.096,7.25 -7.523,13.76 -13.166,19.348 -5.635,5.578 -12.195,9.959 -19.5,13.018 -7.562,3.167 -15.591,4.775 -23.857,4.775 z m -0.048,-101.834 c -22.83,0.021 -41.41,18.396 -41.41,40.963 0,22.586 18.598,40.963 41.457,40.963 22.861,0 41.459,-18.375 41.459,-40.963 0,-22.586 -18.598,-40.963 -41.459,-40.963 z"
   id="path204" />
		</g>
		<g
   id="path1134_1_">
			<circle
   fill="#ffd700"
   cx="760.92102"
   cy="117.748"
   r="13.15"
   id="circle207" />
		</g>
		<g
   id="path1134-3_1_">
			<circle
   fill="#ffd700"
   cx="763.36798"
   cy="220.44099"
   r="13.153"
   id="circle210" />
		</g>
		<g
   id="path1134-3-6_1_">
			<path
   fill="#ffd700"
   d="m 665.921,156.635 c 7.264,0 13.15,5.887 13.15,13.15 0,7.263 -5.889,13.154 -13.15,13.154 -7.266,0 -13.154,-5.891 -13.154,-13.154 0,-7.263 5.889,-13.15 13.154,-13.15 z"
   id="path213" />
		</g>
		<g
   id="path1897_1_">
			<path
   fill="#ffd700"
   d="m 725.646,201.467 c -7.076,-0.328 -13.801,-2.947 -19.256,-7.502 -4.213,-3.518 -7.514,-8.146 -9.438,-13.234 -0.438,-1.156 -0.896,-2.623 -1.148,-3.664 -0.057,-0.234 -0.107,-0.447 -0.115,-0.469 -0.014,-0.031 1.535,-0.041 7.672,-0.041 h 7.686 l 0.229,0.471 c 0.631,1.271 1.508,2.598 2.441,3.686 0.447,0.523 1.357,1.43 1.881,1.875 1.771,1.508 3.764,2.629 5.963,3.357 4.223,1.396 8.832,1.123 12.919,-0.758 2.511,-1.156 4.81,-2.998 6.528,-5.229 3.271,-4.24 4.424,-9.746 3.138,-14.959 -0.646,-2.615 -1.862,-5.014 -3.616,-7.109 -0.414,-0.498 -1.293,-1.402 -1.787,-1.838 -1.539,-1.365 -3.248,-2.418 -5.178,-3.188 -2.369,-0.947 -5.109,-1.385 -7.592,-1.217 -2.381,0.166 -4.482,0.719 -6.572,1.73 -1.895,0.918 -3.445,2.031 -4.912,3.533 -1.352,1.377 -2.354,2.785 -3.209,4.508 l -0.242,0.482 h -7.658 c -4.215,0 -7.67,-0.008 -7.68,-0.018 -0.023,-0.025 0.246,-1.082 0.453,-1.781 1.648,-5.598 4.775,-10.639 9.039,-14.566 5.275,-4.867 11.914,-7.814 19.041,-8.461 1.064,-0.098 1.965,-0.127 3.336,-0.107 1.348,0.018 2.031,0.059 3.186,0.189 9.813,1.104 18.586,6.664 23.805,15.088 3.988,6.432 5.576,14.082 4.49,21.621 -1.131,7.883 -5.189,15.107 -11.367,20.229 -3.682,3.051 -8.063,5.271 -12.727,6.438 -3.002,0.747 -6.254,1.072 -9.31,0.934 z"
   id="path216" />
		</g>
	</g>
<rect
   style="fill:#000000;fill-opacity:0;stroke-width:1000"
   id="rect1173"
   width="737.24725"
   height="168.96939"
   x="642.55743"
   y="100.23819" /><text
   xml:space="preserve"
   style="font-style:normal;font-variant:normal;font-weight:normal;font-stretch:normal;font-size:32px;line-height:1.25;font-family:Alegreya;-inkscape-font-specification:Alegreya;fill:#ececec;fill-opacity:1;stroke:none"
   x="1042.5212"
   y="1048.8151"
   id="text2551"
   inkscape:export-filename="/home/emmabuntus/Travail/EmmaDE5_64/emmabuntus_de_4/Ecrans/Fond_ecran_demarrage/theme_ice-main/SVG/text2551.png"
   inkscape:export-xdpi="96"
   inkscape:export-ydpi="96"><tspan
     sodipodi:role="line"
     id="tspan2549"
     x="1042.5212"
     y="1048.8151"
     style="font-style:normal;font-variant:normal;font-weight:normal;font-stretch:normal;font-size:32px;font-family:Alegreya;-inkscape-font-specification:Alegreya;fill:#ececec;fill-opacity:1">5</tspan></text></svg>
